Most Streamed Spotify Songs
…
The goal of this classification model is to predict whether or not a song will be in the Top 10 on the Spotify charts based on the Artist’s name. We will accomplish this task using wordpiece tokenization and a Linear SVM.

First, let’s determine which artists have appeared on the charts the most often.

Code

music_df %>%
  group_by(artist.s._name) %>%
  summarise(
    n = n(),
    in_spotify_charts = median(in_spotify_charts)
  ) %>%
  arrange(-n)

# A tibble: 570 × 3
   artist.s._name       n in_spotify_charts
   <chr>            <int>             <dbl>
 1 Taylor Swift        29                12
 2 SZA                 17                 0
 3 Bad Bunny           16                 3
 4 The Weeknd          15                 0
 5 Harry Styles        12                 1
 6 Kendrick Lamar      12                 0
 7 Morgan Wallen        9                 4
 8 Feid                 8                21
 9 BTS                  7                 0
10 Drake, 21 Savage     7                 0
# ℹ 560 more rows
…
